<?xml version="1.0" standalone="no"?>
<!DOCTYPE svg PUBLIC "-//W3C//DTD SVG 1.1//EN" "http://www.w3.org/Graphics/SVG/1.1/DTD/svg11.dtd">
<svg xmlns="http://www.w3.org/2000/svg">
<metadata>Generated by Fontastic.me</metadata>
<defs>
<font id="ir-fonts" horiz-adv-x="512">
<font-face font-family="ir-fonts" units-per-em="512" ascent="480" descent="-32"/>
<missing-glyph horiz-adv-x="512" />

<glyph glyph-name="address" unicode="&#57344;" d="M344 329c0-50-41-91-92-91-51 0-92 41-92 91 0 51 41 92 92 92 51 0 92-41 92-92m95 0c0 101-82 183-183 183-102 0-184-82-184-183 0-44 16-85 42-116l142-203 143 206c5 6 10 13 14 20l2 2-1 0c16 27 25 58 25 91"/>
<glyph glyph-name="addtoany" unicode="&#57345;" d="M405 448l-298 0c-24 0-43-19-43-43l0-298c0-24 19-43 43-43l298 0c24 0 43 19 43 43l0 298c0 24-19 43-43 43z m-42-213l-86 0 0-86-42 0 0 86-86 0 0 42 86 0 0 86 42 0 0-86 86 0z"/>
<glyph glyph-name="application-list" unicode="&#57346;" d="M110 174l0-19c0-2-1-4-3-6-2-2-4-3-6-3l-19 0c-2 0-4 1-6 3-2 2-3 4-3 6l0 19c0 2 1 4 3 6 2 2 4 3 6 3l19 0c2 0 4-1 6-3 2-2 3-4 3-6z m0 73l0-18c0-3-1-5-3-7-2-2-4-3-6-3l-19 0c-2 0-4 1-6 3-2 2-3 4-3 7l0 18c0 2 1 4 3 6 2 2 4 3 6 3l19 0c2 0 4-1 6-3 2-2 3-4 3-6z m0 73l0-18c0-3-1-5-3-7-2-2-4-2-6-2l-19 0c-2 0-4 0-6 2-2 2-3 4-3 7l0 18c0 2 1 5 3 6 2 2 4 3 6 3l19 0c2 0 4-1 6-3 2-1 3-4 3-6z m329-146l0-19c0-2-1-4-3-6-2-2-4-3-6-3l-275 0c-2 0-4 1-6 3-2 2-3 4-3 6l0 19c0 2 1 4 3 6 2 2 4 3 6 3l275 0c2 0 4-1 6-3 2-2 3-4 3-6z m0 73l0-18c0-3-1-5-3-7-2-2-4-3-6-3l-275 0c-2 0-4 1-6 3-2 2-3 4-3 7l0 18c0 2 1 4 3 6 2 2 4 3 6 3l275 0c2 0 4-1 6-3 2-2 3-4 3-6z m0 73l0-18c0-3-1-5-3-7-2-2-4-2-6-2l-275 0c-2 0-4 0-6 2-2 2-3 4-3 7l0 18c0 2 1 5 3 6 2 2 4 3 6 3l275 0c2 0 4-1 6-3 2-1 3-4 3-6z m36-201l0 238c0 2 0 4-2 6-2 2-4 3-7 3l-420 0c-3 0-5-1-7-3-2-2-2-4-2-6l0-238c0-3 0-5 2-7 2-1 4-2 7-2l420 0c3 0 5 1 7 2 2 2 2 4 2 7z m37 311l0-311c0-13-4-23-13-32-9-9-20-14-33-14l-420 0c-13 0-24 5-33 14-9 9-13 19-13 32l0 311c0 12 4 23 13 32 9 9 20 13 33 13l420 0c13 0 24-4 33-13 9-9 13-20 13-32z"/>
<glyph glyph-name="blogs" unicode="&#57347;" d="M339 26c81 0 146 65 146 145l1 118-1 6-4 8-6 5c-9 7-52 0-63 10-9 8-10 21-12 40-5 35-8 37-13 49-21 43-76 75-113 79l-102 0c-81 0-146-65-146-145l0-170c0-80 65-145 146-145z m-166 341l81 0c16 0 28-12 28-27 0-16-12-28-28-28l-81 0c-15 0-27 12-27 28 0 15 12 27 27 27m-27-194c0 15 12 28 27 28l165 0c15 0 28-13 28-28 0-15-13-28-28-28l-165 0c-15 0-27 13-27 28"/>
<glyph glyph-name="book-open" unicode="&#57348;" d="M487 375c7-10 9-23 5-36l-79-259c-3-12-11-23-22-31-11-8-22-12-35-12l-263 0c-15 0-29 5-43 15-13 10-23 23-28 37-5 13-5 25-1 37 0 0 0 3 1 7 1 5 1 8 1 11 0 2 0 4-1 6 0 3-1 5-1 6 1 2 2 4 3 6 1 2 2 4 4 6 2 3 4 5 5 7 5 7 9 16 13 26 4 10 7 19 9 26 0 2 0 5-1 9 0 4 0 6 0 8 1 2 2 5 5 8 3 3 4 5 5 7 4 6 8 15 12 26 4 11 6 19 7 26 0 1 0 4-1 9 0 4 0 7 0 8 1 2 3 5 7 8 3 4 5 6 6 7 3 5 8 13 12 24 4 11 7 20 8 28 0 1 0 4-1 7-1 3-1 6-1 7 1 2 2 4 3 6 1 1 3 4 5 6 2 3 4 5 5 6 2 2 3 5 5 9 1 3 3 7 4 10 1 3 3 6 5 10 1 4 3 7 5 9 2 3 5 5 8 7 3 2 6 3 10 3 4 0 8 0 14-1l-1-1c8 2 12 2 15 2l217 0c14 0 25-5 33-16 7-10 9-23 5-37l-78-259c-7-22-14-37-21-43-6-7-19-10-36-10l-249 0c-5 0-8-2-11-5-2-3-2-7 0-12 5-13 18-20 41-20l264 0c6 0 11 2 16 5 5 3 8 6 10 11l86 282c1 5 2 10 1 17 7-3 13-7 17-13z m-304 0c-1-3-1-5 0-7 1-1 3-2 6-2l174 0c2 0 4 1 7 2 2 2 4 4 5 7l6 18c0 3 0 5-1 7-1 1-3 2-6 2l-173 0c-3 0-5-1-8-2-2-2-4-4-4-7z m-24-73c-1-3-1-5 0-7 2-2 3-2 6-2l174 0c2 0 5 0 7 2 3 2 4 4 5 7l6 18c1 2 0 5-1 6-1 2-3 3-5 3l-174 0c-3 0-5-1-7-3-3-1-4-4-5-6z"/>
<glyph glyph-name="calendar-month" unicode="&#57349;" d="M55 37l82 0 0 82-82 0z m100 0l92 0 0 82-92 0z m-100 100l82 0 0 92-82 0z m100 0l92 0 0 92-92 0z m-100 110l82 0 0 82-82 0z m210-210l92 0 0 82-92 0z m-110 210l92 0 0 82-92 0z m220-210l82 0 0 82-82 0z m-110 100l92 0 0 92-92 0z m-100 247l0 82c0 3-1 5-3 7-2 2-4 2-7 2l-18 0c-2 0-4 0-6-2-2-2-3-4-3-7l0-82c0-2 1-5 3-6 2-2 4-3 6-3l18 0c3 0 5 1 7 3 2 1 3 4 3 6z m210-247l82 0 0 92-82 0z m-110 110l92 0 0 82-92 0z m110 0l82 0 0 82-82 0z m9 137l0 82c0 3-1 5-3 7-2 2-4 2-6 2l-18 0c-3 0-5 0-7-2-2-2-3-4-3-7l0-82c0-2 1-5 3-6 2-2 4-3 7-3l18 0c2 0 4 1 6 3 2 1 3 4 3 6z m110 18l0-365c0-10-4-19-11-26-7-7-16-11-26-11l-402 0c-10 0-19 4-26 11-7 7-11 16-11 26l0 365c0 10 4 19 11 26 7 7 16 11 26 11l36 0 0 27c0 13 5 24 14 33 9 9 20 13 32 13l18 0c13 0 24-4 33-13 9-9 13-20 13-33l0-27 110 0 0 27c0 13 4 24 13 33 9 9 20 13 33 13l18 0c12 0 23-4 32-13 9-9 14-20 14-33l0-27 36 0c10 0 19-4 26-11 7-7 11-16 11-26z"/>
<glyph glyph-name="chart" unicode="&#57350;" d="M243 248l127-221c-34-17-73-27-114-27-141 0-256 115-256 256 0 136 107 247 240 256l0-256c0-2 1-5 3-8z m269 24l-240 0 0 240c129-8 232-111 240-240z m-208 32l171 0c-19 85-86 152-171 171z m94-261c65 43 108 115 114 197l-228 0z"/>
<glyph glyph-name="clear-folder" unicode="&#57351;" d="M512 211c0 46-26 87-65 114 2-13 4-26 4-39 0-103-88-190-203-208 24-10 52-16 81-16 27 0 53 5 77 14 29-10 62-12 88-12-14 16-23 33-30 47 30 26 48 62 48 100z m-109 75c0 90-90 164-201 164-112 0-202-74-202-164 0-47 25-90 64-120-7-19-20-44-41-69 40 0 92 5 132 30 15-3 30-5 47-5 111 0 201 73 201 164z"/>
<glyph glyph-name="document-excel" unicode="&#57352;" d="M456 403c5-5 10-12 14-21 4-9 5-18 5-25l0-330c0-7-2-14-8-19-5-5-11-8-19-8l-384 0c-8 0-14 3-19 8-6 5-8 12-8 19l0 458c0 7 2 14 8 19 5 5 11 8 19 8l256 0c8 0 16-2 25-6 9-4 17-8 22-13z m-127 70l0-107 108 0c-2 5-4 9-7 11l-89 90c-2 2-6 4-12 6z m110-436l0 292-119 0c-8 0-14 3-19 8-6 5-8 12-8 20l0 118-220 0 0-438z m-280 66l0-30 80 0 0 30-21 0 29 46c1 2 2 3 3 5 1 2 2 3 2 4 1 1 1 1 1 1l1 0c0-1 1-2 1-3 1 0 1-1 2-2 0-1 1-1 1-2 1-1 2-2 2-3l31-46-22 0 0-30 83 0 0 30-19 0-55 78 56 81 19 0 0 31-80 0 0-31 21 0-29-45c-1-2-2-3-3-5-1-2-2-3-3-4l0-1-1 0c0 1 0 2-1 3-1 2-3 4-5 7l-30 45 21 0 0 31-82 0 0-31 19 0 54-78-55-81z"/>
<glyph glyph-name="document-music" unicode="&#57353;" d="M190 381l0-193c-10 6-22 10-35 10-37 0-67-30-67-67 0-37 30-67 67-67 37 0 67 30 67 67l0 180 170 49 0-115c-10 7-22 10-35 10-37 0-67-30-67-67 0-36 30-66 67-66 35 0 63 26 66 60l1 0 0 266z"/>
<glyph glyph-name="document-pdf" unicode="&#57354;" d="M456 403c5-5 10-12 14-21 4-9 5-18 5-25l0-330c0-7-2-14-8-19-5-5-11-8-19-8l-384 0c-8 0-14 3-19 8-6 5-8 12-8 19l0 458c0 7 2 14 8 19 5 5 11 8 19 8l256 0c8 0 16-2 25-6 9-4 17-8 22-13z m-127 70l0-107 108 0c-2 5-4 9-7 11l-89 90c-2 2-6 4-12 6z m110-436l0 292-119 0c-8 0-14 3-19 8-6 5-8 12-8 20l0 118-220 0 0-438z m-147 169c6-5 14-10 24-16 11 1 22 2 33 2 28 0 45-5 51-14 3-4 3-9 1-15 0 0-1 0-1 0l0-1 0 0c-1-8-8-11-21-11-9 0-20 2-32 6-13 3-26 8-38 15-42-5-79-13-112-24-29-50-52-75-69-75-3 0-5 1-8 2l-7 4c0 0 0 0-1 1-2 2-3 5-2 10 2 8 7 17 16 26 9 10 22 19 38 28 2 2 5 1 6-2 1 0 1 0 1-1 10 16 20 35 30 56 13 26 23 51 30 75-4 16-7 31-9 46-1 15 0 27 2 36 2 8 6 12 12 12l7 0c4 0 7-2 10-5 3-4 4-10 2-19 0-1-1-2-1-2 0-1 0-2 0-3l0-8c0-24-1-42-4-55 11-31 25-54 42-68z m-165-117c10 4 23 19 40 45-10-8-18-16-25-24-7-9-12-16-15-21z m114 262c-3-8-3-20 0-37 0 1 0 5 2 12 0 1 0 5 2 13 0 0 0 1 1 2 0 0-1 0-1 0 0 1 0 1 0 1 0 0 0 0 0 0 0 4-1 8-4 11 0-1 0-1 0-1z m-35-188c25 10 52 18 81 23-1 0-2 1-4 2-2 2-3 3-4 4-15 13-27 30-37 51-5-17-13-36-23-57-6-10-10-18-13-23z m184 4c-4 5-18 7-40 7 15-5 27-8 36-8 2 0 4 0 5 0 0 0 0 1-1 1z"/>
<glyph glyph-name="feed" unicode="&#57355;" d="M33 70c0-21 16-37 37-37l372 0c21 0 37 16 37 37l0 372c0 21-16 37-37 37l-372 0c-21 0-37-16-37-37l0-372z m363 79c0-13-11-23-24-23-13 0-23 10-23 23 0 105-85 191-191 191-13 0-23 10-23 23 0 13 10 23 23 23 69 0 126-24 170-68 46-46 68-102 68-169z m-84 0c0-13-11-23-23-23-13 0-24 10-24 23 0 59-48 107-107 107-13 0-23 10-23 23 0 13 10 24 23 24 85 0 154-69 154-154z m-177 19c0 23 19 41 42 41 23 0 42-18 42-41 0-24-19-42-42-42-23 0-42 18-42 42z"/>
<glyph glyph-name="mail" unicode="&#57356;" d="M476 85l-439 0 156 157 63-49 63 49z m15 15l0 273-155-118z m-470 0l0 273 155-118z m470 300l0 27-470 0 0-27 235-180z"/>
<glyph glyph-name="mail-alert" unicode="&#57357;" d="M487 334l0-325c0-10-8-18-17-18l-434 0c-10 0-18 8-18 18l0 325c0 8 7 19 13 24l204 149c11 7 25 7 35-1l38-29-141-126 70 0-33-126 167 149-70 0 24 91 151-111c6-5 11-11 11-20z m-269-146l-142 78 0-218 354 0 0 220-159-81c-16-8-36-8-53 1z"/>
<glyph glyph-name="mobile-phone" unicode="&#57358;" d="M149 448l0-385c0-42 43-42 43-42l149 0c0 0 43 0 43 42l0 385c0 43-43 43-43 43l-149 0c0 0-43 0-43-43z m22-11l0-341 192 0 0 341z m96-399c11 0 21 10 21 22 0 12-10 21-21 21-12 0-22-9-22-21 0-12 10-22 22-22z m-29 431c-2 0-3-2-3-4l0-2c0-2 1-4 3-4l58 0c1 0 3 2 3 4l0 2c0 2-2 4-3 4z"/>
<glyph glyph-name="printer" unicode="&#57359;" d="M160 128l160 0 0-32-160 0z m-32 352l256 0 0-64 32 0 0 64c0 18-14 32-32 32l-256 0c-18 0-32-14-32-32l0-64 32 0z m32-288l192 0 0-32-192 0z m320 192l-448 0c-18 0-32-14-32-32l0-192c0-18 14-32 32-32l64 0 0-96c0-18 14-32 32-32l256 0c18 0 32 14 32 32l0 96 64 0c18 0 32 14 32 32l0 192c0 18-14 32-32 32z m-96-352l-256 0 0 192 256 0z m64 256c-18 0-32 14-32 32 0 18 14 32 32 32 18 0 32-14 32-32 0-18-14-32-32-32z"/>
<glyph glyph-name="projection-screen" unicode="&#57360;" d="M26 418l0-285 460 0 0 285z m30-30l400 0 0-225-400 0z m100-265l-20-20 0-10 240 0 0 10-20 20z"/>
<glyph glyph-name="users" unicode="&#57361;" d="M135 203c-71-1-129-49-134-110l67 0 0 0c4 39 24 76 57 103 3 2 7 5 10 7m27 122c0 8 1 17 3 25-8 4-17 7-27 7-35 0-63-35-63-77 0-41 27-75 60-77 15 11 32 19 50 25 4 5 7 10 10 16-20 19-33 48-33 81m174 1c0 53-36 97-80 97-45 0-81-44-81-97 0-48 29-88 67-96-86-6-155-66-161-140l349 0c-6 74-75 134-161 140 38 8 67 48 67 96m100-49c0 43-28 77-63 77-10 0-19-2-27-7 2-8 3-16 3-25 0-33-13-62-33-80 3-6 6-12 10-17 18-6 35-14 50-24 34 2 60 35 60 76m74-187c-5 61-63 109-134 110 3-2 7-4 10-7 33-27 53-63 57-103l0 0z"/>
</font></defs></svg>
